…
``` r
identifier_cols <- c("Year", "Age", "Tm", "Lg", "G")
weight_cols <- wOBA_numer_weights$stat

yasmani_stats_prepped <- yasmani_stats %>% 
  mutate(uBB = BB - IBB,
         `1B` = H - `2B` - `3B` - HR) %>% 
  # we only want to keep columns that matter for wOBA calculation plus a few identifiers
  select(all_of(identifier_cols), all_of(weight_cols)) %>% 
  pivot_longer(all_of(weight_cols), names_to = "stat", values_to = "total")

yasmani_stats_prepped
#> # A tibble: 80 x 7
#>     Year   Age Tm    Lg        G stat  total
#>    <dbl> <dbl> <chr> <chr> <dbl> <chr> <dbl>
#>  1  2012    23 SDP   NL       60 uBB      30
#>  2  2012    23 SDP   NL       60 HBP       1
#>  3  2012    23 SDP   NL       60 SF        2
#>  4  2012    23 SDP   NL       60 AB      192
#>  5  2012    23 SDP   NL       60 1B       41
#>  6  2012    23 SDP   NL       60 2B        7
#>  7  2012    23 SDP   NL       60 3B        1
#>  8  2012    23 SDP   NL       60 HR        8
#>  9  2013    24 SDP   NL       28 uBB      16
#> 10  2013    24 SDP   NL       28 HBP       1
#> # ... with 70 more rows
```
…
yasmani_components
#> # A tibble: 80 x 11
#>     Year   Age Tm    Lg        G total wOBA_component wOBA_year numer_component
#>    <dbl> <dbl> <chr> <chr> <dbl> <dbl>          <dbl>     <dbl>           <dbl>
#>  1  2012    23 SDP   NL       60    30        0.092       0.379           20.7 
#>  2  2012    23 SDP   NL       60     1        0.0032      0.379            0.72
#>  3  2012    23 SDP   NL       60     2        0           0.379            0   
#>  4  2012    23 SDP   NL       60   192        0           0.379            0   
#>  5  2012    23 SDP   NL       60    41        0.162       0.379           36.5 
#>  6  2012    23 SDP   NL       60     7        0.0395      0.379            8.89
#>  7  2012    23 SDP   NL       60     1        0.0072      0.379            1.62
#>  8  2012    23 SDP   NL       60     8        0.0747      0.379           16.8 
#>  9  2013    24 SDP   NL       28    16        0.104       0.311           11.0 
#> 10  2013    24 SDP   NL       28     1        0.00679     0.311            0.72
#> # ... with 70 more rows, and 2 more variables: denom_component <dbl>,
#> #   denom_year <dbl>
```
…
